DRAFT, UNDER DEVELOPMENT: An elegant guide to mobilizing data to OBIS & GBIF for the discerning member of the Demopoulos lab. - eMoF Extension Example Script
…
  distinct()

# write out to csv
Infauna_emof %>% 
  write.csv(paste0("data/gomx_sediment_macrofauna_emof_", Sys.Date(), ".csv"),
            na = "",
            fileEncoding = "UTF-8", 
            row.names = FALSE
  )

print(Infauna_emof)                           

# A tibble: 939 × 7
   eventID    measurementType measurementTypeID measurementValue measurementUnit
   <chr>      <chr>           <chr>             <chr>            <chr>          
 1 MC885_201… Thickness (tra… http://vocab.ner… 6.35             Centimetres    
 2 MC885_201… Depth (spatial… http://vocab.ner… 0                Centimetres    
 3 MC885_201… Depth (spatial… http://vocab.ner… 2                Centimetres    
 4 MC885_201… Thickness (tra… http://vocab.ner… 6.35             Centimetres    
 5 MC885_201… Depth (spatial… http://vocab.ner… 2                Centimetres    
 6 MC885_201… Depth (spatial… http://vocab.ner… 5                Centimetres    
 7 MC885_201… Thickness (tra… http://vocab.ner… 6.35             Centimetres    
 8 MC885_201… Depth (spatial… http://vocab.ner… 5                Centimetres    
 9 MC885_201… Depth (spatial… http://vocab.ner… 10               Centimetres    
10 MC885_201… Thickness (tra… http://vocab.ner… 6.35             Centimetres    
# ℹ 929 more rows
# ℹ 2 more variables: measurementUnitID <chr>, measurementRemarks <chr>
